{
  "apps" : [{
    "name"      : "website",
    "script"    : "../website/bin/www"
  },{
    "name"      : "api-users",
    "script"    : "../api-users/bin/www"
  },{
    "name"      : "api-songs",
    "script"    : "../api-songs/bin/www"
  },{
    "name"      : "api-artists",
    "script"    : "../api-artists/bin/www"
  }]
}